Handshake Mechanism/VCD Files/handshake.vcd
$date
	Wed Feb 28 01:37:22 2024
$end
$version
	QuestaSim Version 2021.1
$end
$timescale
	1ns
$end

$scope module handshake_tb $end
$var parameter 32 ! DATA_WIDTH $end
$var reg 1 " i_clk_a $end
$var reg 1 # i_clk_b $end
$var reg 1 $ rstn $end
$var reg 8 % i_data [7:0] $end
$var reg 1 & i_valid $end
$var reg 1 ' o_busy $end
$var reg 1 ( o_valid $end
$var reg 8 ) o_data [7:0] $end
$var reg 8 * ref_data [7:0] $end
$var integer 32 + o_count $end
$var integer 32 , i_count $end

$scope task send_data $end
$upscope $end

$scope module dut $end
$var parameter 32 - DATA_WIDTH $end
$var wire 1 . i_clk_a $end
$var wire 1 / i_clk_b $end
$var wire 1 0 i_rst_n_a $end
$var wire 1 1 i_rst_n_b $end
$var wire 1 2 i_valid $end
$var wire 1 3 i_data [7] $end
$var wire 1 4 i_data [6] $end
$var wire 1 5 i_data [5] $end
$var wire 1 6 i_data [4] $end
$var wire 1 7 i_data [3] $end
$var wire 1 8 i_data [2] $end
$var wire 1 9 i_data [1] $end
$var wire 1 : i_data [0] $end
$var reg 1 ; o_busy $end
$var reg 1 < o_valid $end
$var reg 8 = o_data [7:0] $end
$var reg 1 > REQ $end
$var reg 1 ? ACK $end
$var reg 1 @ Sync_REQ $end
$var reg 1 A Sync_ACK $end
$var reg 1 B req_sync_0 $end
$var reg 1 C ack_sync_0 $end
$var reg 8 D data_sync [7:0] $end
$var reg 1 E current_state $end
$var reg 1 F next_state $end

$scope begin current_state_logic $end
$upscope $end

$scope begin next_state_logic $end
$upscope $end

$scope begin REQ_GENERATOR $end
$upscope $end

$scope begin REQ_Synchronizer $end
$upscope $end

$scope begin ACK_Synchronizer $end
$upscope $end

$scope begin ACK_AND_OUTPUT $end
$upscope $end
$upscope $end
$upscope $end
$enddefinitions $end
#0
$dumpvars
0"
0#
1$
bx %
x&
x'
x(
bx )
bx *
x;
x<
bx =
x>
x?
x@
xA
xB
xC
bx D
xE
0F
b1000 !
b1000 -
b0 +
b0 ,
x:
x9
x8
x7
x6
x5
x4
x3
x2
11
10
0/
0.
$end
#1
0$
00
01
0B
0@
0?
0<
b0 =
0E
0>
b0 D
0C
0A
0;
b0 )
0(
0'
#3
1$
b100100 *
10
11
#5
1"
1.
1&
b100100 %
0:
09
18
07
06
15
04
03
12
1F
#10
0"
0.
#13
1#
1/
#15
1"
1.
b1 ,
b10000001 *
1E
1>
b100100 D
0&
1;
1'
02
#20
0"
0.
#25
1"
1.
1&
b10000001 %
1:
08
05
13
12
#26
0#
0/
#30
0"
0.
#35
1"
1.
b1001 *
0&
02
#39
1#
1/
1B
#40
0"
0.
#45
1"
1.
1&
b1001 %
17
03
12
#50
0"
0.
#52
0#
0/
#55
1"
1.
b1100011 *
0&
02
#60
0"
0.
#65
1#
1"
1/
1.
1@
1&
b1100011 %
19
07
15
14
12
#70
0"
0.
#75
1"
1.
b1101 *
0&
02
#78
0#
0/
#80
0"
0.
#85
1"
1.
1&
b1101 %
09
18
17
05
04
12
#90
0"
0.
#91
1#
1/
1?
1<
b100100 =
b100100 )
1(
#94
b1 +
#95
1"
1.
b10001101 *
1C
0&
02
#100
0"
0.
#104
0#
0/
#105
1"
1.
1A
1&
b10001101 %
13
12
0F
#110
0"
0.
#115
1"
1.
b1100101 *
0E
0&
0;
0'
02
#117
1#
1/
0<
0(
#120
0"
0.
#125
1"
1.
1&
b1100101 %
07
15
14
03
12
1F
#130
0#
0"
0/
0.
#135
1"
1.
b10 ,
b10010 *
1E
0>
b1100101 D
0&
1;
1'
02
#140
0"
0.
#143
1#
1/
0B
#145
1"
1.
1&
b10010 %
0:
19
08
16
05
04
12
#150
0"
0.
#155
1"
1.
b1 *
0&
02
#156
0#
0/
#160
0"
0.
#165
1"
1.
1&
b1 %
1:
09
06
12
#169
1#
1/
0@
#170
0"
0.
#175
1"
1.
b1101 *
0&
02
#180
0"
0.
#182
0#
0/
#185
1"
1.
1&
b1101 %
18
17
12
#190
0"
0.
#195
1#
1"
1/
1.
b1110110 *
0?
1<
b1100101 =
0&
b1100101 )
1(
02
#198
b10 +
#200
0"
0.
#205
1"
1.
0C
1&
b1110110 %
0:
19
07
16
15
14
12
#208
0#
0/
#210
0"
0.
#215
1"
1.
b111101 *
0A
0&
02
0F
#220
0"
0.
#221
1#
1/
0<
0(
#225
1"
1.
0E
1&
b111101 %
0;
1:
09
17
04
0'
12
1F
#230
0"
0.
#234
0#
0/
#235
1"
1.
b11 ,
b11101101 *
1>
b111101 D
1E
0&
1;
1'
02
#240
0"
0.
#245
1"
1.
1&
b11101101 %
06
14
13
12
#247
1#
1/
1B
#250
0"
0.
#255
1"
1.
b10001100 *
0&
02
#260
0#
0"
0/
0.
#265
1"
1.
1&
b10001100 %
0:
05
04
12
#270
0"
0.
#273
1#
1/
1@
#275
1"
1.
b11111001 *
0&
02
#280
0"
0.
#285
1"
1.
1&
b11111001 %
1:
08
16
15
14
12
#286
0#
0/
#290
0"
0.
#295
1"
1.
b11000110 *
0&
02
#299
1#
1/
1?
1<
b111101 =
b111101 )
1(
#300
0"
0.
#302
b11 +
#305
1"
1.
1C
1&
b11000110 %
0:
19
18
07
06
05
12
#310
0"
0.
#312
0#
0/
#315
1"
1.
b11000101 *
1A
0&
02
0F
#320
0"
0.
#325
1#
1"
1/
1.
0E
0<
1&
b11000101 %
0(
0;
1:
09
0'
12
1F
#330
0"
0.
#335
1"
1.
b100 ,
b10101010 *
0>
b11000101 D
1E
0&
1;
1'
02
#338
0#
0/
#340
0"
0.
#345
1"
1.
1&
b10101010 %
0:
19
08
17
15
04
12
#350
0"
0.
#351
1#
1/
0B
#355
1"
1.
b11100101 *
0&
02
#360
0"
0.
#364
0#
0/
#365
1"
1.
1&
b11100101 %
1:
09
18
07
14
12
#370
0"
0.
#375
1"
1.
b1110111 *
0&
02
#377
1#
1/
0@
#380
0"
0.
#385
1"
1.
1&
b1110111 %
19
16
03
12
#390
0#
0"
0/
0.
#395
1"
1.
b10010 *
0&
02
#400
0"
0.
#403
1#
1/
0?
1<
b11000101 =
b11000101 )
1(
#405
1"
1.
0C
1&
b10010 %
0:
08
05
04
12
#406
b100 +
#410
0"
0.
#415
1"
1.
b10001111 *
0A
0&
02
0F
#416
0#
0/
#420
0"
0.
#425
1"
1.
0E
1&
b10001111 %
0;
1:
18
17
06
13
0'
12
1F
#429
1#
1/
0<
0(
#430
0"
0.
#435
1"
1.
b101 ,
b11110010 *
1>
b10001111 D
1E
0&
1;
1'
02
#440
0"
0.
#442
0#
0/
#445
1"
1.
1&
b11110010 %
0:
08
07
16
15
14
12
#450
0"
0.
#455
1#
1"
1/
1.
b11001110 *
1B
0&
02
#460
0"
0.
#465
1"
1.
1&
b11001110 %
18
17
06
05
12
#468
0#
0/
#470
0"
0.
#475
1"
1.
b11101000 *
0&
02
#480
0"
0.
#481
1#
1/
1@
#485
1"
1.
1&
b11101000 %
09
08
15
12
#490
0"
0.
#494
0#
0/
#495
1"
1.
b11000101 *
0&
02
#500
0"
0.
#505
1"
1.
1&
b11000101 %
1:
18
07
05
12
#507
1#
1/
1?
1<
b10001111 =
b10001111 )
1(
#510
0"
b101 +
0.
#515
1"
1.
b1011100 *
1C
0&
02
#520
0#
0"
0/
0.
#525
1"
1.
1A
1&
b1011100 %
0:
17
16
03
12
0F
#530
0"
0.
#533
1#
1/
0<
0(
#535
1"
1.
b10111101 *
0E
0&
0;
0'
02
#540
0"
0.
#545
1"
1.
1&
b10111101 %
1:
15
04
13
12
1F
#546
0#
0/
#550
0"
0.
#555
1"
1.
b110 ,
b101101 *
1E
0>
b10111101 D
0&
1;
1'
02
#559
1#
1/
0B
#560
0"
0.
#565
1"
1.
1&
b101101 %
06
03
12
#570
0"
0.
#572
0#
0/
#575
1"
1.
b1100101 *
0&
02
#580
0"
0.
#585
1#
1"
1/
1.
0@
1&
b1100101 %
07
14
12
#590
0"
0.
#595
1"
1.
b1100011 *
0&
02
#598
0#
0/
#600
0"
0.
#605
1"
1.
1&
b1100011 %
19
08
12
#610
0"
0.
#611
1#
1/
0?
1<
b10111101 =
b10111101 )
1(
#614
b110 +
#615
1"
1.
b1010 *
0C
0&
02
#620
0"
0.
#624
0#
0/
#625
1"
1.
0A
1&
b1010 %
0:
17
05
04
12
0F
#630
0"
0.
#635
1"
1.
b10000000 *
0E
0&
0;
0'
02
#637
1#
1/
0<
0(
#640
0"
0.
#645
1"
1.
1&
b10000000 %
09
07
13
12
1F
#650
0#
0"
0/
0.
#655
1"
1.
b111 ,
b100000 *
1E
1>
b10000000 D
0&
1;
1'
02
#660
0"
0.
#663
1#
1/
1B
#665
1"
1.
1&
b100000 %
15
03
12
#670
0"
0.
#675
1"
1.
b10101010 *
0&
02
#676
0#
0/
#680
0"
0.
#685
1"
1.
1&
b10101010 %
19
17
13
12
#689
1#
1/
1@
#690
0"
0.
#695
1"
1.
b10011101 *
0&
02
#700
0"
0.
#702
0#
0/
#705
1"
1.
1&
b10011101 %
1:
09
18
16
05
12
#710
0"
0.
#715
1#
1"
1/
1.
b10010110 *
1?
1<
b10000000 =
0&
b10000000 )
1(
02
#718
b111 +
#720
0"
0.
#725
1"
1.
1C
1&
b10010110 %
0:
19
07
12
#728
0#
0/
#730
0"
0.
#735
1"
1.
b10011 *
1A
0&
02
0F
#740
0"
0.
#741
1#
1/
0<
0(
#745
1"
1.
0E
1&
b10011 %
0;
1:
08
03
0'
12
1F
#750
0"
0.
#754
0#
0/
#755
1"
1.
b1000 ,
b1101 *
0>
b10011 D
1E
0&
1;
1'
02
#760
0"
0.
#765
1"
1.
1&
b1101 %
09
18
17
06
12
#767
1#
1/
0B
#770
0"
0.
#775
1"
1.
b1010011 *
0&
02
#780
0#
0"
0/
0.
#785
1"
1.
1&
b1010011 %
19
08
07
16
14
12
#790
0"
0.
#793
1#
1/
0@
#795
1"
1.
b1101011 *
0&
02
#800
0"
0.
#805
1"
1.
1&
b1101011 %
17
06
15
12
#806
0#
0/
#810
0"
0.
#815
1"
1.
b11010101 *
0&
02
#819
1#
1/
0?
1<
b10011 =
b10011 )
1(
#820
0"
0.
#822
b1000 +
#825
1"
1.
0C
1&
b11010101 %
09
18
07
16
05
13
12
#830
0"
0.
#832
0#
0/
#835
1"
1.
b10 *
0A
0&
02
0F
#840
0"
0.
#845
1#
1"
1/
1.
0E
0<
1&
b10 %
0(
0;
0:
19
08
06
04
03
0'
12
1F
#850
0"
0.
#855
1"
1.
b1001 ,
b10101110 *
1>
b10 D
1E
0&
1;
1'
02
#858
0#
0/
#860
0"
0.
#865
1"
1.
1&
b10101110 %
18
17
15
13
12
#870
0"
0.
#871
1#
1/
1B
#875
1"
1.
b11101 *
0&
02
#880
0"
0.
#884
0#
0/
#885
1"
1.
1&
b11101 %
1:
09
16
05
03
12
#890
0"
0.
#895
1"
1.
b11001111 *
0&
02
#897
1#
1/
1@
#900
0"
0.
#905
1"
1.
1&
b11001111 %
19
06
14
13
12
#910
0#
0"
0/
0.
#915
1"
1.
b100011 *
0&
02
#920
0"
0.
#923
1#
1/
1?
1<
b10 =
b10 )
1(
#925
1"
1.
1C
1&
b100011 %
08
07
15
04
03
12
#926
b1001 +
#930
0"
0.
#935
1"
1.
b1010 *
1A
0&
02
0F
#936
0#
0/
#940
0"
0.
#945
1"
1.
0E
1&
b1010 %
0;
0:
17
05
0'
12
1F
#949
1#
1/
0<
0(
#950
0"
0.
#955
1"
1.
b1010 ,
b11001010 *
0>
b1010 D
1E
0&
1;
1'
02
#960
0"
0.
#962
0#
0/
#965
1"
1.
1&
b11001010 %
14
13
12
#970
0"
0.
#975
1#
1"
1/
1.
b111100 *
0B
0&
02
#980
0"
0.
#985
1"
1.
1&
b111100 %
09
18
16
15
04
03
12
#988
0#
0/
#990
0"
0.
#995
1"
1.
b11110010 *
0&
02
#1000
0"
0.
#1001
1#
1/
0@
#1005
1"
1.
1&
b11110010 %
19
08
07
14
13
12
#1010
0"
0.
#1014
0#
0/
#1015
1"
1.
b10001010 *
0&
02
#1020
0"
0.
#1025
1"
1.
1&
b10001010 %
17
06
05
04
12
#1027
1#
1/
0?
1<
b1010 =
b1010 )
1(
#1030
0"
b1010 +
0.
#1035
1"
1.
b1000001 *
0C
0&
02
#1040
0#
0"
0/
0.
#1045
1"
1.
0A
1&
b1000001 %
1:
09
07
14
03
12
0F
#1050
0"
0.
#1053
1#
1/
0<
0(
#1055
1"
1.
b11011000 *
0E
0&
0;
0'
02
#1060
0"
0.
#1065
1"
1.
1&
b11011000 %
0:
17
16
13
12
1F
#1066
0#
0/
#1070
0"
0.
#1075
1"
1.
b1011 ,
b1111000 *
1E
1>
b11011000 D
0&
1;
1'
02
#1079
1#
1/
1B
#1080
0"
0.
#1085
1"
1.
1&
b1111000 %
15
03
12
#1090
0"
0.
#1092
0#
0/
#1095
1"
1.
b10001001 *
0&
02
#1100
0"
0.
#1105
1#
1"
1/
1.
1@
1&
b10001001 %
1:
06
05
04
13
12
#1110
0"
0.
#1115
1"
1.
b11101011 *
0&
02
#1118
0#
0/
#1120
0"
0.
#1125
1"
1.
1&
b11101011 %
19
15
14
12
#1130
0"
0.
#1131
1#
1/
1?
1<
b11011000 =
b11011000 )
1(
#1134
b1011 +
#1135
1"
1.
b10110110 *
1C
0&
02
#1140
0"
0.
#1144
0#
0/
#1145
1"
1.
1A
1&
b10110110 %
0:
18
07
16
04
12
0F
#1150
0"
0.
#1155
1"
1.
b11000110 *
0E
0&
0;
0'
02
#1157
1#
1/
0<
0(
#1160
0"
0.
#1165
1"
1.
1&
b11000110 %
06
05
14
12
1F
#1170
0#
0"
0/
0.
#1175
1"
1.
b1100 ,
b10101110 *
1E
0>
b11000110 D
0&
1;
1'
02
#1180
0"
0.
#1183
1#
1/
0B
#1185
1"
1.
1&
b10101110 %
17
15
04
12
#1190
0"
0.
#1195
1"
1.
b10111100 *
0&
02
#1196
0#
0/
#1200
0"
0.
#1205
1"
1.
1&
b10111100 %
09
16
12
#1209
1#
1/
0@
#1210
0"
0.
#1215
1"
1.
b101010 *
0&
02
#1220
0"
0.
#1222
0#
0/
#1225
1"
1.
1&
b101010 %
19
08
06
03
12
#1230
0"
0.
#1235
1#
1"
1/
1.
b1011 *
0?
1<
b11000110 =
0&
b11000110 )
1(
02
#1238
b1100 +
#1240
0"
0.
#1245
1"
1.
0C
1&
b1011 %
1:
05
12
#1248
0#
0/
#1250
0"
0.
#1255
1"
1.
b1110001 *
0A
0&
02
0F
#1260
0"
0.
#1261
1#
1/
0<
0(
#1265
1"
1.
0E
1&
b1110001 %
0;
09
07
16
15
14
0'
12
1F
#1270
0"
0.
#1274
0#
0/
#1275
1"
1.
b1101 ,
b10000101 *
1>
b1110001 D
1E
0&
1;
1'
02
#1280
0"
0.
#1285
1"
1.
1&
b10000101 %
18
06
05
04
13
12
#1287
1#
1/
1B
#1290
0"
0.
#1295
1"
1.
b1001111 *
0&
02
#1300
0#
0"
0/
0.
#1305
1"
1.
1&
b1001111 %
19
17
14
03
12
#1310
0"
0.
#1313
1#
1/
1@
#1315
1"
1.
b111011 *
0&
02
#1320
0"
0.
#1325
1"
1.
1&
b111011 %
08
16
15
04
12
#1326
0#
0/
#1330
0"
0.
#1335
1"
1.
b111010 *
0&
02
#1339
1#
1/
1?
1<
b1110001 =
b1110001 )
1(
#1340
0"
0.
#1342
b1101 +
#1345
1"
1.
1C
1&
b111010 %
0:
12
#1350
0"
0.
#1352
0#
0/
#1355
1"
1.
b1111110 *
1A
0&
02
0F
#1360
0"
0.
#1365
1#
1"
1/
1.
0E
0<
1&
b1111110 %
0(
0;
18
14
0'
12
1F
#1370
0"
0.
#1375
1"
1.
b1110 ,
b10101 *
0>
b1111110 D
1E
0&
1;
1'
02
#1378
0#
0/
#1380
0"
0.
#1385
1"
1.
1&
b10101 %
1:
09
07
05
04
12
#1390
0"
0.
#1391
1#
1/
0B
#1395
1"
1.
b11110001 *
0&
02
#1400
0"
0.
#1404
0#
0/
#1405
1"
1.
1&
b11110001 %
08
15
14
13
12
#1410
0"
0.
#1415
1"
1.
b11011001 *
0&
02
#1417
1#
1/
0@
#1420
0"
0.
#1425
1"
1.
1&
b11011001 %
17
05
12
#1430
0#
0"
0/
0.
#1435
1"
1.
b1100010 *
0&
02
#1440
0"
0.
#1443
1#
1/
0?
1<
b1111110 =
b1111110 )
1(
#1445
1"
1.
0C
1&
b1100010 %
0:
19
07
06
15
03
12
#1446
b1110 +
#1450
0"
0.
#1455
1"
1.
b1001100 *
0A
0&
02
0F
#1456
0#
0/
#1460
0"
0.
#1465
1"
1.
0E
1&
b1001100 %
0;
09
18
17
05
0'
12
1F
#1469
1#
1/
0<
0(
#1470
0"
0.
#1475
1"
1.
b1111 ,
b10011111 *
1>
b1001100 D
1E
0&
1;
1'
02
#1480
0"
0.
#1482
0#
0/
#1485
1"
1.
1&
b10011111 %
1:
19
16
04
13
12
#1490
0"
0.
#1495
1#
1"
1/
1.
b10001111 *
1B
0&
02
#1500
0"
0.
#1505
1"
1.
1&
b10001111 %
06
12
#1508
0#
0/
#1510
0"
0.
#1515
1"
1.
b11111000 *
0&
02
#1520
0"
0.
#1521
1#
1/
1@
#1525
1"
1.
1&
b11111000 %
0:
09
08
16
15
14
12
#1530
0"
0.
#1534
0#
0/
#1535
1"
1.
b10110111 *
0&
02
#1540
0"
0.
#1545
1"
1.
1&
b10110111 %
1:
19
18
07
04
12
#1547
1#
1/
1?
1<
b1001100 =
b1001100 )
1(
#1550
0"
b1111 +
0.
#1555
1"
1.
b10011111 *
1C
0&
02
#1560
0#
0"
0/
0.
#1565
1"
1.
1A
1&
b10011111 %
17
05
12
0F
#1570
0"
0.
#1573
1#
1/
0<
0(
#1575
1"
1.
b1011100 *
0E
0&
0;
0'
02
#1580
0"
0.
#1585
1"
1.
1&
b1011100 %
0:
09
14
03
12
1F
#1586
0#
0/
#1590
0"
0.
#1595
1"
1.
b10000 ,
b1011011 *
1E
0>
b1011100 D
0&
1;
1'
02
#1599
1#
1/
0B
#1600
0"
0.
#1605
1"
1.
1&
b1011011 %
1:
19
08
12
#1610
0"
0.
#1612
0#
0/
#1615
1"
1.
b10001001 *
0&
02
#1620
0"
0.
#1625
1#
1"
1/
1.
0@
1&
b10001001 %
09
06
04
13
12
#1630
0"
0.
#1635
1"
1.
b1001001 *
0&
02
#1638
0#
0/
#1640
0"
0.
#1645
1"
1.
1&
b1001001 %
14
03
12
#1650
0"
0.
#1651
1#
1/
0?
1<
b1011100 =
b1011100 )
1(
#1654
b10000 +
#1655
1"
1.
b11010000 *
0C
0&
02
#1660
0"
0.
#1664
0#
0/
#1665
1"
1.
0A
1&
b11010000 %
0:
07
16
13
12
0F
#1670
0"
0.
#1675
1"
1.
b11010111 *
0E
0&
0;
0'
02
#1677
1#
1/
0<
0(
#1680
0"
0.
#1685
1"
1.
1&
b11010111 %
1:
19
18
12
1F
#1690
0#
0"
0/
0.
#1695
1"
1.
b10001 ,
b1010001 *
1E
1>
b11010111 D
0&
1;
1'
02
#1700
0"
0.
#1703
1#
1/
1B
#1705
1"
1.
1&
b1010001 %
09
08
03
12
#1710
0"
0.
#1715
1"
1.
b10010110 *
0&
02
#1716
0#
0/
#1720
0"
0.
#1725
1"
1.
1&
b10010110 %
0:
19
18
04
13
12
#1729
1#
1/
1@
#1730
0"
0.
#1735
1"
1.
b1100 *
0&
02
#1740
0"
0.
#1742
0#
0/
#1745
1"
1.
1&
b1100 %
09
17
06
03
12
#1750
0"
0.
#1755
1#
1"
1/
1.
b11000010 *
1?
1<
b11010111 =
0&
b11010111 )
1(
02
#1758
b10001 +
#1760
0"
0.
#1765
1"
1.
1C
1&
b11000010 %
19
08
07
14
13
12
#1768
0#
0/
#1770
0"
0.
#1775
1"
1.
b11001000 *
1A
0&
02
0F
#1780
0"
0.
#1781
1#
1/
0<
0(
#1785
1"
1.
0E
1&
b11001000 %
0;
09
17
0'
12
1F
#1790
0"
0.
#1794
0#
0/
#1795
1"
1.
b10010 ,
b1110111 *
0>
b11001000 D
1E
0&
1;
1'
02
#1800
0"
0.
#1805
1"
1.
1&
b1110111 %
1:
19
18
07
16
15
03
12
#1807
1#
1/
0B
#1810
0"
0.
#1815
1"
1.
b111101 *
0&
02
#1820
0#
0"
0/
0.
#1825
1"
1.
1&
b111101 %
09
17
04
12
#1830
0"
0.
#1833
1#
1/
0@
#1835
1"
1.
b10010 *
0&
02
#1840
0"
0.
#1845
1"
1.
1&
b10010 %
0:
19
08
07
05
12
#1846
0#
0/
#1850
0"
0.
#1855
1"
1.
b1111110 *
0&
02
#1859
1#
1/
0?
1<
b11001000 =
b11001000 )
1(
#1860
0"
0.
#1862
b10010 +
#1865
1"
1.
0C
1&
b1111110 %
18
17
15
14
12
#1870
0"
0.
#1872
0#
0/
#1875
1"
1.
b1101101 *
0A
0&
02
0F
#1880
0"
0.
#1885
1#
1"
1/
1.
0E
0<
1&
b1101101 %
0(
0;
1:
09
06
0'
12
1F
#1890
0"
0.
#1895
1"
1.
b10011 ,
b111001 *
1>
b1101101 D
1E
0&
1;
1'
02
#1898
0#
0/
#1900
0"
0.
#1905
1"
1.
1&
b111001 %
08
16
04
12
#1910
0"
0.
#1911
1#
1/
1B
#1915
1"
1.
b11111 *
0&
02
#1920
0"
0.
#1924
0#
0/
#1925
1"
1.
1&
b11111 %
19
18
05
12
#1930
0"
0.
#1935
1"
1.
b11010011 *
0&
02
#1937
1#
1/
1@
#1940
0"
0.
#1945
1"
1.
1&
b11010011 %
08
07
14
13
12
#1950
0#
0"
0/
0.
#1955
1"
1.
b10000101 *
0&
02
#1960
0"
0.
#1963
1#
1/
1?
1<
b1101101 =
b1101101 )
1(
#1965
1"
1.
1C
1&
b10000101 %
09
18
06
04
12
#1966
b10011 +
#1970
0"
0.
#1975
1"
1.
b1111000 *
1A
0&
02
0F
#1976
0#
0/
#1980
0"
0.
#1985
1"
1.
0E
1&
b1111000 %
0;
0:
08
17
16
15
14
03
0'
12
1F
#1989
1#
1/
0<
0(
#1990
0"
0.
#1995
1"
1.
b10100 ,
b1011011 *
0>
b1111000 D
1E
0&
1;
1'
02
#2000
0"
0.
#2002
0#
0/
#2005
1"
1.
1&
b1011011 %
1:
19
05
12
#2010
0"
0.
#2015
1#
1"
1/
1.
b1001001 *
0B
0&
02
#2020
0"
0.
#2025
1"
1.
1&
b1001001 %
09
06
12
#2028
0#
0/
#2030
0"
0.
#2035
1"
1.
b111111 *
0&
02
#2040
0"
0.
#2041
1#
1/
0@
#2045
1"
1.
1&
b111111 %
19
18
16
15
04
12
#2050
0"
0.
#2054
0#
0/
#2055
1"
1.
b101010 *
0&
02
#2060
0"
0.
#2065
1"
1.
1&
b101010 %
0:
08
06
12
#2067
1#
1/
0?
1<
b1111000 =
b1111000 )
1(
#2070
0"
b10100 +
0.
#2075
1"
1.
b1011000 *
0C
0&
02
#2080
0#
0"
0/
0.
#2085
1"
1.
0A
1&
b1011000 %
09
16
05
14
12
0F
#2090
0"
0.
#2093
1#
1/
0<
0(
#2095
1"
1.
b10000110 *
0E
0&
0;
0'
02
#2100
0"
0.
#2105
1"
1.
1&
b10000110 %
19
18
07
06
04
13
12
1F
#2106
0#
0/
#2110
0"
0.
#2115
1"
1.
b10101 ,
b10001110 *
1E
1>
b10000110 D
0&
1;
1'
02
#2119
1#
1/
1B
#2120
0"
0.
#2125
1"
1.
1&
b10001110 %
17
12
#2130
0"
0.
#2132
0#
0/
#2135
1"
1.
b10011100 *
0&
02
#2140
0"
0.
#2145
1#
1"
1/
1.
1@
1&
b10011100 %
09
16
12
#2150
0"
0.
#2155
1"
1.
b11111010 *
0&
02
#2158
0#
0/
#2160
0"
0.
#2165
1"
1.
1&
b11111010 %
19
08
15
14
12
#2170
0"
0.
#2171
1#
1/
1?
1<
b10000110 =
b10000110 )
1(
#2174
b10101 +
#2175
1"
1.
b100110 *
1C
0&
02
#2180
0"
0.
#2184
0#
0/
#2185
1"
1.
1A
1&
b100110 %
18
07
06
04
03
12
0F
#2190
0"
0.
#2195
1"
1.
b1110011 *
0E
0&
0;
0'
02
#2197
1#
1/
0<
0(
#2200
0"
0.
#2205
1"
1.
1&
b1110011 %
1:
08
16
14
12
1F
#2210
0#
0"
0/
0.
#2215
1"
1.
b10110 ,
b10100011 *
1E
0>
b1110011 D
0&
1;
1'
02
#2220
0"
0.
#2223
1#
1/
0B
#2225
1"
1.
1&
b10100011 %
06
04
13
12
#2230
0"
0.
#2235
1"
1.
b101111 *
0&
02
#2236
0#
0/
#2240
0"
0.
#2245
1"
1.
1&
b101111 %
18
17
03
12
#2249
1#
1/
0@
#2250
0"
0.
#2255
1"
1.
b10110011 *
0&
02
#2260
0"
0.
#2262
0#
0/
#2265
1"
1.
1&
b10110011 %
08
07
16
13
12
#2270
0"
0.
#2275
1#
1"
1/
1.
b1011111 *
0?
1<
b1110011 =
0&
b1110011 )
1(
02
#2278
b10110 +
#2280
0"
0.
#2285
1"
1.
0C
1&
b1011111 %
18
17
05
14
03
12
#2288
0#
0/
#2290
0"
0.
#2295
1"
1.
b1000100 *
0A
0&
02
0F
#2300
0"
0.
#2301
1#
1/
0<
0(
#2305
1"
1.
0E
1&
b1000100 %
0;
0:
09
07
06
0'
12
1F
#2310
0"
0.
#2314
0#
0/
#2315
1"
1.
b10111 ,
b11110111 *
1>
b1000100 D
1E
0&
1;
1'
02
#2320
0"
0.
#2325
1"
1.
1&
b11110111 %
1:
19
16
15
13
12
#2327
1#
1/
1B
#2330
0"
0.
#2335
1"
1.
b11001011 *
0&
02
#2340
0#
0"
0/
0.
#2345
1"
1.
1&
b11001011 %
08
17
06
05
12
#2350
0"
0.
#2353
1#
1/
1@
#2355
1"
1.
b11100110 *
0&
02
#2360
0"
0.
#2365
1"
1.
1&
b11100110 %
0:
18
07
15
12
#2366
0#
0/
#2370
0"
0.
#2375
1"
1.
b1011010 *
0&
02
#2379
1#
1/
1?
1<
b1000100 =
b1000100 )
1(
#2380
0"
0.
#2382
b10111 +
#2385
1"
1.
1C
1&
b1011010 %
08
17
16
05
03
12
#2390
0"
0.
#2392
0#
0/
#2395
1"
1.
b101001 *
1A
0&
02
0F
#2400
0"
0.
#2405
1#
1"
1/
1.
0E
0<
1&
b101001 %
0(
0;
1:
09
06
15
04
0'
12
1F
#2410
0"
0.
#2415
1"
1.
b11000 ,
b11101101 *
0>
b101001 D
1E
0&
1;
1'
02
#2418
0#
0/
#2420
0"
0.
#2425
1"
1.
1&
b11101101 %
18
14
13
12
#2430
0"
0.
#2431
1#
1/
0B
#2435
1"
1.
b11011010 *
0&
02
#2440
0"
0.
#2444
0#
0/
#2445
1"
1.
1&
b11011010 %
0:
19
08
16
05
12
#2450
0"
0.
#2455
1"
1.
b1100101 *
0&
02
#2457
1#
1/
0@
#2460
0"
0.
#2465
1"
1.
1&
b1100101 %
1:
09
18
07
06
15
03
12
#2470
0#
0"
0/
0.
#2475
1"
1.
b10110101 *
0&
02
#2480
0"
0.
#2483
1#
1/
0?
1<
b101001 =
b101001 )
1(
#2485
1"
1.
0C
1&
b10110101 %
16
04
13
12
#2486
b11000 +
#2490
0"
0.
#2495
1"
1.
b11011111 *
0A
0&
02
0F
#2496
0#
0/
#2500
0"
0.
#2505
1"
1.
0E
1&
b11011111 %
0;
19
17
05
14
0'
12
1F
#2509
1#
1/
0<
0(
#2510
0"
0.
#2515
1"
1.
b11001 ,
b1111001 *
1>
b11011111 D
1E
0&
1;
1'
02
#2520
0"
0.
#2522
0#
0/
#2525
1"
1.
1&
b1111001 %
09
08
15
03
12
#2530
0"
0.
#2535
1#
1"
1/
1.
b1000100 *
1B
0&
02
#2540
0"
0.
#2545
1"
1.
1&
b1000100 %
0:
18
07
06
05
12
#2548
0#
0/
#2550
0"
0.
#2555
1"
1.
b11010000 *
0&
02
#2560
0"
0.
#2561
1#
1/
1@
#2565
1"
1.
1&
b11010000 %
08
16
13
12
#2570
0"
0.
#2574
0#
0/
#2575
1"
1.
b101010 *
0&
02
#2580
0"
0.
#2585
1"
1.
1&
b101010 %
19
17
06
15
04
03
12
#2587
1#
1/
1?
1<
b11011111 =
b11011111 )
1(
#2590
0"
b11001 +
0.
#2595
1"
1.
b10101011 *
1C
0&
02
#2600
0#
0"
0/
0.
#2605
1"
1.
1A
1&
b10101011 %
1:
13
12
0F
#2610
0"
0.
#2613
1#
1/
0<
0(
#2615
1"
1.
b1110 *
0E
0&
0;
0'
02
#2620
0"
0.
#2625
1"
1.
1&
b1110 %
0:
18
05
03
12
1F
#2626
0#
0/
#2630
0"
0.
#2635
1"
1.
b11010 ,
b11011100 *
1E
0>
b1110 D
0&
1;
1'
02
#2639
1#
1/
0B
#2640
0"
0.
#2645
1"
1.
1&
b11011100 %
09
16
14
13
12
#2650
0"
0.
#2652
0#
0/
#2655
1"
1.
b10011010 *
0&
02
#2660
0"
0.
#2665
1#
1"
1/
1.
0@
1&
b10011010 %
19
08
04
12
#2670
0"
0.
#2675
1"
1.
b11111101 *
0&
02
#2678
0#
0/
#2680
0"
0.
#2685
1"
1.
1&
b11111101 %
1:
09
18
15
14
12
#2690
0"
0.
#2691
1#
1/
0?
1<
b1110 =
b1110 )
1(
#2694
b11010 +
#2695
1"
1.
b11000011 *
0C
0&
02
#2700
0"
0.
#2704
0#
0/
#2705
1"
1.
0A
1&
b11000011 %
19
08
07
06
05
12
0F
#2710
0"
0.
#2715
1"
1.
b1010110 *
0E
0&
0;
0'
02
#2717
1#
1/
0<
0(
#2720
0"
0.
#2725
1"
1.
1&
b1010110 %
0:
18
16
03
12
1F
#2730
0#
0"
0/
0.
